{
    "abruti": "C'est pas un malheureux, c'est un abruti. Y a pas de mal à se moquer des abrutis, ils sont là pour ça non ?",
    "accent": "Je prends l'accent belge ?\nNon !\nAlo?\nAaalo, alo, pourrais-je parler à Monsieur Leblanc, juste une fois ?",
    "actualité": "Il me demande mon avis sur l'actualité, et je le lui donne.",
    "affoler": "Je veux pas vous affoler, mais si la moëlle épinière est touchée, c'est paralysé à tous les coups. Et là à part un voyage à Lourdes ...",
    "ahbon": "Ah bon ... Et bin je peux vous le dire alors, ça va très mal. Sa femme l'a quitté en plus, c'est un homme brisé, le coeur, les reins, tout",
    "allez": "'Allez l'OM ! Allez l'OM ! Allez'\nC'est vraiment pour vous que je le fais Pierre. Allez l'OM.",
    "ami": "Je mérite vraiment pas un ami comme toi.",
    "amoureuse": "Pourquoi je suis tombée amoureuse d'un salop pareil ?",
    "amusant": "Je suis tombé sur votre répondeur tout à l'heure, il est très amusant.",
    "annonce": "Ça s'annonce plutôt bien dis moi !",
    "annuaire": "Il s'appelle Jean-Patrice Benjamin mais au ministère on l'appelle Ducon. Vous trouverez son numéro dans l'annuaire. À Benjamin hein, pas à Ducon !",
    "appeler": "Allez dites-moi d'appeler Cheval je vous en prie, dites-moi d'appeler Cheval !\nDis-lui Pierre, pense à Christine, il faut la tirer de là Bon Dieu ! Allez dis-lui d'appeler Cheval !\nAllez dites-moi d'appeler Cheval\nAllez dis-lui d'appeler Cheval.\nDites-moi d'appeler Cheval.",
    "arranger": "Aah, merci Monsieur Brochant ! Tout va s'arranger, vous allez voir, tout va s'arranger.",
    "arrivé": "On est arrivé.\nAh oui, déjà, on n'a pas vu le temps passer dis donc !",
    "arrête": "Arrête s'il te plaît !",
    "aurevoir": "On s'était dit au revoir je crois.",
    "auxerrois": "Alors comment il va ce soir monsieur l'auxerrois ?",
    "belge": "Américain, allemand ?\nBelge. Ah c'est parfait ça, belge !\nPourquoi belge ?\nParce que c'est très bien belge !",
    "besoin": "Je sens qu'on va avoir besoin de moi !",
    "bibelot": "Il y avait un bibelot là. Il y avait un bibelot !",
    "boderick": "Boderick. À cause de l'actrice américaine, Bo Dereck. Boderick, Bo Dereck. Ce qu'on a pu rire au bureau avec ça.",
    "bonsoir": "Bonsoir Monsieur Brochant.\nBonsoir !",
    "boomerang": "Mais attention, le vrai boomerang, le boomerang authentique, pas celui qu'on trouve dans les bazars pour touristes de Sidney et de Canberra, le-le boomerang primitif, celui qui armait les fiers guerriers australiens depuis la nuit des temps, ce boomerang là, a une dynamique, un mouvement dans l'espace quand il est bien lancé, que je qualifierais de miraculeux",
    "bordel": "Rattrape-le bordel !",
    "boulette": "Ah la boulette.\nÇa dépasse tout ce que j'ai pu imaginé.\nAh oui, j'ai fait la boulette.",
    "boute-en-train": "C'est un boute-en-train",
    "bretonne": "Ah bon ? Elle est bretonne ?\nJe vous en prie, restez concentré !\nExcusez-moi.",
    "bête": "C'est pas pour dire mais qu'est-ce qu'il est bête ! Allez, dîtes un chiffre !\nMais plus bête que ... enfin je veux dire vous êtes intelligent vous alors ? Par rapport à vous ?",
    "cesoir": "Dîtes donc ça n'arrête pas ce soir !",
    "champion": "Comment est-il ?\nUn champion du monde.",
    "chance": "Vous avez de la chance de connaître un monsieur qui s'appelle François Pignon et qui a dit : 'On ne passe pas'.",
    "changé": "Vous avez changé ma vie Monsieur Brochant.",
    "cheval": "Vous faîtes peine à voir. On dirait un cheval qui a raté une haie. On vous abattrait sur un champ de course.",
    "chiant": "T'es vraiment chiant tu sais.",
    "chiottes": "Aux chiottes l'OM, aux chiottes l'OM, aux chiottes !",
    "chronologique": "Vous n'avez pas encore fini là ?\nJe les range par ordre chronologique, les premières constructions d'abord ...\nVous les rangerez chez vous !",
    "clair": "C'est clair ?\nTrès clair oui.",
    "classe": "Excusez-moi, j'avoue que je suis un peu perdu, j'essaye de comprendre mais ...\nLa classe mondiale, peut-être même le champion du monde.",
    "cochon": "Hey je l'ai vu à l'oeuvre le Menaud hein ! Dès qu'y a un jupeau à l'horizon il devient fou ! Oh le cochon, oh le cochon, oh le cochon, le cochon, le cochon ...",
    "coeur": "Je suis avec vous Monsieur Brochant, je suis vraiment de tout coeur avec vous.\nMerci beaucoup, au revoir.",
    "combien": "Alors, combien d'allumettes ?\nDeux mille ?\nTrois cent quarante six mille quatre cent vingt-deux.\nWow !",
    "compris": "Ça va il a compris il est pas con tout de même !",
    "compétition": "C'est un ami à vous ?\nNan, j'ai des amis très cons mais pas à ce point là. Ceux qu'on sélectionne sont des champions, c'est de la haute compétition",
    "concours": "Mais il est hors concours celui là !\nC'est comme ça depuis une heure, ça n'arrête pas.",
    "confusant": "C'est son nom 'Sasseur', 'Marlène Sasseur' !\nJe pouvais pas savoir, moi ! Elle me dit 'C'est Marlène Sasseur', avouez que c'est confusant.",
    "connard": "Regardez-moi ce connard.",
    "consommé": "Espérons qu'ils n'ont pas encore consommé.",
    "content": "Regardez-le il est content là. Ça va lui faire la soirée ça.",
    "coq": "Comme on dit dans mon village, le coq est lâché gardez vos poules.",
    "couette": "Ah ah, 'sous la couette', hey 'sous la couette', 'sous la couette' !\nC'est fini oui ?",
    "coupé": "Alo ? Alo ? Il a coupé.\nMais non c'est moi abruti !\nComment ça abruti ?",
    "cul": "Dans le cul l'OM, dans le cul lu lu, dans le cul !",
    "demeuré": "C'est pas un demeuré du tout Cheval. C'est même un des meilleurs contrôleurs de la boîte. Tiens, vous le lâchez dans un appartement comme ça, croyez-moi il fait du dégât !",
    "derrick": "Un derrick.\nOh il est superbe ce derrick. Tu as vu ce derrick ?\nOui.",
    "dieu": "Moi je n'aime pas être grossier, mais là il faut employer le mot : c'est un con.\nMon dieu ...",
    "dix-huitième": "Dix-huitième ça va sûrement lui faire plaisir.\nTon père fait collection de louches ?",
    "dixième": "Si l'angle entre les allumettes n'est pas calculé au dixième de degré, c'est foutu. À un dixième de degré près vous vous rendez compte ?",
    "dossier": "Il faut pas que j'oublie mon dossier maquettes.",
    "doué": "Hey, il est doué hein ?",
    "drôle": "C'est plus drôle avec les cons.",
    "dur": "Sois gentil Juste, c'est assez dur comme ça.",
    "dégoûtant": "Le sale truc, il peut plus bouger, il est affalé sur le plancher comme un vieux sac, c'est dégoûtant.",
    "dîner": "Un dîner mercredi soir ? J'en serais ravi Monsieur Michaut.",
    "effrayant": "Mais c'est effrayant ça, tous les types qui font de la planche à voîle piquent la femme de leurs amis alors.",
    "eiffel": "La tour Eiffel. Entièrement faite avec des allumettes. Trois cent quarante six mille quatre cent vingt-deux exactement.",
    "embetez": "Mais vous ne m'embetez pas du tout.",
    "embêté": "Je suis embêté, j'ai toujours pas de con.\nAh bon?\nOuais, c'est pas faute d'en chercher, crois moi.",
    "emmerde": "Mais je vous emmerde mon petit vieux.",
    "empêchement": "On te voit Mercredi ?\nNon, malheureusement j'ai un empêchement.",
    "encore": "Vous êtes encore là vous ?",
    "enregistrer": "Allez, il faut enregistrer le match de ce demeuré maintenant.",
    "exceptionnel": "Hein, il est pas beau celui là ?\nAh il a l'air assez exceptionnel oui.",
    "fabuleux": "Tu vas voir, il paraît qu'il est fabuleux.",
    "facile": "Ça a pas été facile, mais on a gagné !",
    "fatiguant": "C'est horriblement fatiguant d'être intelligent.\nJe ne sais pas, faudrait que j'essaye.",
    "fatigué": "Il a la voix fatigué, c'est pas bon signe.",
    "faveur": "J'aimerais vous demander une faveur.\nMais je vous en prie.\nNe m'invitez j'amais à dîner, j'aurais toujours un doute.",
    "femme": "Et ma femme ?\nQuoi ?\nIl a oublié ma femme. Il fait le clown pendant 5 minutes et il oublie ma femme.",
    "fenêtre": "Bien fait pour lui c'est un sale type. Et voilà le résultat, sa femme est à l'hôpital et moi je vais me foutre par la fenêtre.",
    "fidèle": "Moi j'ai toujours été fidèle à ma femme, et pourant c'est pas les occasions qui manquent au ministère des finances.",
    "finement": "Et sans me vanter je crois que je l'ai joué assez finement ce coup ci.",
    "fini": "C'est fini oui ?",
    "follingue": "C'est elle, c'est la follingue.\nDe qui il parle là ?",
    "forme": "Je suis prêt allons-y, je me sens très en forme !",
    "formidable": "Il voit tout, il est formidable, non il voit tout, t'es formidable Lucien !",
    "fous": "Je m'en fous François. C'est affreux mais je m'en fous.",
    "foutre": "Va te faire foutre tiens !\nToi aussi va te faire foutre ! Mais quel connard ce type !",
    "gauche": "J'avais dit à gauche Pignon.",
    "genre": "T'es pas du tout son genre tu sais !\nComment ?\nIl les aime avec plus de poitrine et moins de poils aux pattes !",
    "gentil": "C'est vraiment très gentil ça.",
    "gueule": "Tu vas pas me faire la gueule parce que j'ai envie de m'amuser un peu ?",
    "guignols": "C'est des guignols les auxerrois, des petites bites, des jean foutre !",
    "habitude": "Nan je vous en prie j'ai l'habitude.",
    "horrible": "Il serait pas un peu con dis moi ?\nC'est pour ça que je l'ai invité.\nNe me dis pas c'est le type ...\nSi, c'est horrible, horrible.",
    "imbécile": "Il y a des moments j'ai vraiment l'impression que vous me prenez pour un imbécile hein.",
    "impeccable": "Et bin voilà, impeccable !",
    "improviser": "Je pourrais peut-être improviser un peu ...\nNon !",
    "insiste": "Je n'insiste pas. Bonne nuit Monsieur Brochant.",
    "interrogatoire": "Ça veut dire quoi cet interrogatoire ?",
    "intéressant": "C'est intéressant ça. Et il aime partager sa passion ? Enfin je veux dire, il peut en parler en public, te faire l'historique de la louche à travers les âges ?",
    "invité": "On fait très attention. Jamais un con n'a su pour quoi on l'avait invité.",
    "juste": "Leblanc c'est son nom, et c'est Juste son prénom. Hum Monsieur Pignon votre prénom à vous c'est François c'est juste ? Et bien lui c'est pareil, c'est Juste.",
    "lafite": "Je fous du vinaigre dans mon Château Lafitte. C'est un truc que je te donne si tu veux transformer un très grand vin en piquette. Et voilà ! Le gros Lafitte qui tâche.",
    "lamentable": "Tu me verrais tu rigolerais bien, je peux plus bouger, je suis cassé en deux. Lamentable quoi.",
    "limites": "On a repoussé les limites là.",
    "lumière": "Je n'ai pas très bien compris pourquoi d'ailleurs, parce qu'entre nous, c'est pas une lumière !",
    "lâcher": "Mais vous allez nous lâcher un peu vous ?",
    "mal": "Ça fait mal hein ?",
    "marié": "Vous êtes marié ?\nOui, enfin, non. Tancarville.\nMagnifique. Mais attendez vous êtes marié oui ou non ?\nC'est à dire que, ma femme est partie.\nAh bon.",
    "merci": "Merci mon petit !",
    "mercredi": "Mercredi je ne peux pas j'ai un dîner.",
    "mieux": "Pourquoi il répond pas ?\nIl a peut-être mieux à faire.",
    "mignon": "Il est méchant Monsieur Brochant, il est mignon Monsieur Pignon !",
    "modeste": "Bravo Lucien !\nTu vas me faire rougir François.\nSois pas modeste Lucien, t'en as coincé d'autres des fraudeurs !",
    "mondiale": "J'ai un con de classe mondiale ce soir !",
    "morale": "C'est une belle morale pour cette histoire. Le méchant Brochant, abandonné de tous, se saoûle tout seul dans son grand appartement vide et le gentil Pignon rentre chez lui en pensant 'c'est bien fait pour ce salop'.",
    "mère": "Mais vous connaîssez pas Cheval il contrôlerait sa mère !",
    "méchant": "Elle avait raison vous êtes un homme méchant Monsieur Brochant. Oui je suis méchant, c'est aussi ce que dit Christine. Vous voyez tout le monde est d'accord, je suis méchant.",
    "ménage": "Excusez-moi Docteur, je vous avais fait venir pour un tour de rein, pas pour une scène de ménage.",
    "nerveux": "Excusez-moi moi François, je me suis montré un peu nerveux tout à l'heure.",
    "net": "C'est pas très net tout ça.",
    "nomdedieu": "Oh nom de Dieu !",
    "nymphomane": "C'est tout ce qui me manquait ce soir, une nymphomane.\nAh bon, elle est nymphomane en plus ? Oh là là là ... Oh là là là là ...",
    "objectif": "Nan nan, croyez-moi Docteur il y a des cons totalement objectif. J'en attends un d'un moment à l'autre vous allez voir, on ne peut pas se tromper.",
    "occupé": "Et puis on s'est bien occupé de lui, hein Monsieur Brochant ?\nTrès bien. Et maintenant on allait partir, hein Monsieur Pignon ?",
    "pagaille": "Je croyais que c'était l'autre hystérique je vous dis. J'ai pensé 'Elle a trouvé quelqu'un pour garder les chiens, et maintenant elle vient foutre la pagaille cette nymphomane'\nMais de qui il parle là ?",
    "paix": "Vous allez me foutre la paix oui ?",
    "palme": "On va toujours dîner Mercredi prochain mais cette fois c'est vous qui m'invitez. Et je suis sûr de décrocher la palme.",
    "papapa": "Non Pierre pas Papa.",
    "parti": "C'est parti !",
    "pathétique": "Vous allez voir il essaye d'être drôle, c'est pathétique.",
    "pauvre": "Oh là là, sa femme chez Menaud ? Le pauvre !",
    "pense": "S'il y a un con ici, c'est pas celui qu'on pense !",
    "pignon": "Je m'appelle François Pignon et je suis le con que votre mari devait emmener dîner ce soir.",
    "pipe": "Vous êtes bien chez François Pignon, mais il n'est pas là pour l'instant ! Laissez un message après le bip, il vous rappelera nom d'une pipe ! C'est à vous de parler.",
    "pièce": "C'est une de mes plus belles pièces.\nAh bon, vous en avez d'autres ?",
    "plancheàvoile": "Et c'est un vrai débile, il ne parle que de planche à voile !\nEt où peut-on le rencontrer ce garçon ?\nPourquoi ? Vous aimez la planche à voile ?\nMais énormément, je suis passioné de planche à voile.",
    "plansaitais": "Nan je plansaitais bien sûr.",
    "portance": "Et bien dans un ouvrage comme celui ci, c'est la grande question : les problèmes de portance.",
    "pressé": "Oui je suis un peu pressé mon petit, dépêchez-vous s'il vous plaît !",
    "prison": "Michel Brochant c'est pas impossible, où habite-t-il ?\nEn prison. Il en a pris pour 5 ans ! Ah ah ah !",
    "prodigieux": "Un con qui en moins d'une heure amène ta femme à l'adultère et toi au contrôle fiscal, c'est tout de même prodigieux non ?",
    "prometteur": "C'est très prometteur.\nAttendez la suite !",
    "promettre": "En tout cas vous allez me promettre une chose Monsieur Brochant.\nTout ce que vous voulez.\nVous allez me promettre que vous vous y reprendrez à deux fois avant de traiter quelqu'un de con.\nJe vous le promets François, je vous le jure.",
    "prénom": "Il s'appelle Juste Leblanc.\nAh bon, il a pas de prénom ?\nJe viens de vous le dire. Juste Leblanc.",
    "pub": "Ça rapporte, la pub.",
    "putain": "Oh putain.",
    "rapeux": "Qu'est-ce que c'est que ce vin ?\nIl est un peu rapeux hein ?\nJe vais vomir !",
    "rater": "Nan nan c'est normal, on vous a raté aujourd'hui, on ne va pas vous rater la semaine prochaine.",
    "ravi": "Je suis vraiment ravi de vous connaître Monsieur Pignon.",
    "recommence": "Ça y est, il recommence.",
    "remise": "Elle est intéressante cette chambre.\nOui, je m'en sers un peu comme d'une remise. J'y entasse des vieilles choses sans valeur.",
    "rencontrer": "Il m'a beaucoup parlé de vous et j'aimerais vous rencontrer.",
    "rentrez": "Rentrez chez vous c'est ce que vous avez de mieux à faire.",
    "reposez": "Vous ne vous reposez jamais vous.",
    "reproduis": "Oui, je reproduis avec des allumettes tous les grands chef d'oeuvres du génie civil. Le pont de Tancarville, le Golden Gate de San Francisco ...\nMais elle s'en fout !\nPas du tout ça la passionne figurez-vous !",
    "rhabilles": "Comment ? Bah bien sûr que tu te rhabilles, evidemment que tu te rhabilles !",
    "rigoler": "Toi si c'est pour rigoler tu peux rentrez chez toi !",
    "rire": "Moi ça ne me fait pas rire du tout alors je m'en vais.",
    "récupère": "Il récupère vite hein.",
    "régaler": "On va se régaler.",
    "réjoui": "Tu sais quand elle m'a dit qu'elle te quittait ça m'a pas vraiment réjoui, mais t'imaginer toute la soirée avec ce con ... putain !",
    "répéter": "Hop hop hop il faut le faire répéter !\nMais non il a ...\nSi, je sais ce que je dis. Il faut le faire répéter. Beaucoup, beaucoup beaucoup !",
    "saisi": "Vous avez été saisi récemment ?\nNon pourquoi ?",
    "salop": "Tu me vois invitant le père de mon meilleur ami à un dîner de cons ?\nOui.\nTu me prends vraiment pour un salop ?\nOui.",
    "sauter": "Un connard qui me persécute depuis des mois, je suis en train de sauter sa femme. Je ne suis pas du tout avec Madame Brochant.",
    "savoir": "C'est bon à savoir ça !",
    "simple": "Mais si, j'ai compris. C'est pas simple, mais j'ai compris.",
    "sincère": "C'est un petit vin de propriétaire, un peu rapeux peut-être mais sincère. Je l'ai à très bon prix.",
    "soeur": "C'était votre soeur.\nJ'ai pas de soeur.\nVous n'avez pas de soeur ? Je lui ai dit 'Qui est à l'appareil' et elle m'a dit 'Sasseur'.\nIl a appelé Marlène.",
    "sonne": "Ça sonne !\nIl est content. Ça sonne et il est content.",
    "sourd": "Ça rend sourd le tour de rein ?",
    "stratégie": "J'ai peur.\nLa stratégie est excellente.\nC'est pas la stratégie qui m'inquiète, c'est le stratège.",
    "superbe": "Superbe !",
    "sympathique": "Il était très sympathique. Il avait un grand et bel appartement comme vous, qu'a été mis en liquidiation judiciaire.",
    "tordu": "Alors ça c'est très tordu, mais bougrement intelligent !",
    "toutdemême": "On va tout de même aller à ce dîner.",
    "toutvabien": "Tout va bien bonsoir.",
    "tranquille": "Je voudrais qu'on me laisse tranquille maintenant.",
    "trente-sept": "Trente-sept.\nComment ?\nLes tubes de colle, trente-sept !\nOn va passer une bonne soirée Monsieur Pignon, une très bonne soirée !",
    "téléphone": "J'ai dû vous paraître stupide au téléphone.\nOui ... non ! Non non, vous étiez parfait.",
    "vainqueur": "Oui oui il est là ... très sympathique, il a une belle tête de vainqueur.",
    "vengé": "Tout ce que je peux vous dire, c'est qu'en une soirée, vous avez vengé tous les cons qui ont participé à tous les dîners de cons à travers les âges et dans le monde entier. Voilà.",
    "virée": "Il l'a virée ma femme.\nJe suis désolé Monsieur Brochant.\nElle est revenu et il l'a virée. Il l'a envoyée tout droit chez Menaud.",
    "àdemain": "À demain Monsieur Leblanc ! Et voilà, on a les droits ! Ouh ...",
    "çava": "Alors comment ça va Monsieur Pignon ?",
    "épatant": "Mais c'est épatant ça !",
    "état": "Non on ne va pas dîner là, je suis plus tout à fait en état figurez-vous !",
    "étonne": "Ah mais ça ne m'étonne pas du tout."
}
